NORBIS GENESTAT course, R intro
…
## See spec(...) for full column specifications.

Look at the data: check the class, dimensions and print the first part of the data:

class(obj)

## [1] "spec_tbl_df" "tbl_df"      "tbl"         "data.frame"

obj

## # A tibble: 900 x 48
##    ID    cc.status snp_1.1 snp_1.2 snp_2.1 snp_2.2 snp_3.1 snp_3.2 snp_4.1
##    <chr>     <dbl>   <dbl>   <dbl>   <dbl>   <dbl>   <dbl>   <dbl>   <dbl>
##  1 ID_3          1       2       2       1       2       2       2      NA
##  2 ID_8          1       2       2       1       2       2       1      NA
##  3 ID_19         1       2       2       1       1       2       2       2
##  4 ID_25         1       1       2       1       1       1       1       2
##  5 ID_31         1       2       1       2       1       2       2      NA
##  6 ID_36         1       2       2       1       2       2       2       1
##  7 ID_41         1       2       2       2       2       2       2       1
##  8 ID_68         1       1       2       2       2       2       2       2
##  9 ID_81         1       2       2       1       1       2       2      NA
## 10 ID_84         1       2       2       2       1       2       2      NA
## # â€¦ with 890 more rows, and 39 more variables: snp_4.2 <dbl>, snp_5.1 <dbl>,
## #   snp_5.2 <dbl>, snp_6.1 <dbl>, snp_6.2 <dbl>, snp_7.1 <dbl>, snp_7.2 <dbl>,
## #   snp_8.1 <dbl>, snp_8.2 <dbl>, snp_9.1 <dbl>, snp_9.2 <dbl>, snp_10.1 <dbl>,
## #   snp_10.2 <dbl>, snp_11.1 <dbl>, snp_11.2 <dbl>, snp_12.1 <dbl>,
## #   snp_12.2 <dbl>, snp_13.1 <dbl>, snp_13.2 <dbl>, snp_14.1 <dbl>,
## #   snp_14.2 <dbl>, snp_15.1 <dbl>, snp_15.2 <dbl>, snp_16.1 <dbl>,
## #   snp_16.2 <dbl>, snp_17.1 <dbl>, snp_17.2 <dbl>, snp_18.1 <dbl>,
## #   snp_18.2 <dbl>, snp_19.1 <dbl>, snp_19.2 <dbl>, snp_20.1 <dbl>,
## #   snp_20.2 <dbl>, snp_21.1 <dbl>, snp_21.2 <dbl>, snp_22.1 <dbl>,
…
table(cc.status)

## cc.status
##   0   1 
## 400 500

Accessing the first SNP

snp1 <- obj %>%
  select(snp_1.1, snp_1.2)
snp1

## # A tibble: 900 x 2
##    snp_1.1 snp_1.2
##      <dbl>   <dbl>
##  1       2       2
##  2       2       2
##  3       2       2
##  4       1       2
##  5       2       1
##  6       2       2
##  7       2       2
##  8       1       2
##  9       2       2
## 10       2       2
## # â€¦ with 890 more rows
…
sum(round(table(snp1)/nrow(snp1), 2))

## [1] 1

Tabulate SNP8

snp8 <- obj %>%
  select(snp_8.1, snp_8.2)
snp8

## # A tibble: 900 x 2
##    snp_8.1 snp_8.2
##      <dbl>   <dbl>
##  1       2       2
##  2      -9      -9
##  3       2       2
##  4       2       2
##  5      -9      -9
##  6       2       2
##  7       2       2
##  8       2       2
##  9       2       2
## 10       2       2
## # â€¦ with 890 more rows
…
##  snp_4.1  snp_4.2  snp_8.1  snp_8.2 snp_12.1 snp_12.2 snp_21.1 snp_21.2 
##        9       10       17       18       25       26       43       44 
## snp_23.1 snp_23.2 
##       47       48

names(na.snp.07)

##  [1] "snp_4.1"  "snp_4.2"  "snp_8.1"  "snp_8.2"  "snp_12.1" "snp_12.2"
##  [7] "snp_21.1" "snp_21.2" "snp_23.1" "snp_23.2"

Look at first 10 rows of SNPs with more than 7% missing

obj %>% select(!!names(na.snp.07))

## # A tibble: 900 x 10
##    snp_4.1 snp_4.2 snp_8.1 snp_8.2 snp_12.1 snp_12.2 snp_21.1 snp_21.2 snp_23.1
##      <dbl>   <dbl>   <dbl>   <dbl>    <dbl>    <dbl>    <dbl>    <dbl>    <dbl>
##  1      NA      NA       2       2        2        2        1        2        2
##  2      NA      NA      NA      NA        2        2        2        2        2
##  3       2       2       2       2        2        1        2        1        2
##  4       2       2       2       2        2        2        2        2        2
##  5      NA      NA      NA      NA       NA       NA        2        2        2
##  6       1       2       2       2        2        1        2        2        2
##  7       1       2       2       2        2        2        2        2       NA
##  8       2       2       2       2        2        2       NA       NA        2
##  9      NA      NA       2       2        2        2        2        2        2
## 10      NA      NA       2       2        2        2        2        2        2
## # â€¦ with 890 more rows, and 1 more variable: snp_23.2 <dbl>
…
Remove SNPs with more than 7% missing:

obj <- obj %>%
  select(-!!names(na.snp.07))
obj

## # A tibble: 900 x 38
##    ID    cc.status snp_1.1 snp_1.2 snp_2.1 snp_2.2 snp_3.1 snp_3.2 snp_5.1
##    <chr>     <dbl>   <dbl>   <dbl>   <dbl>   <dbl>   <dbl>   <dbl>   <dbl>
##  1 ID_3          1       2       2       1       2       2       2       1
##  2 ID_8          1       2       2       1       2       2       1       2
##  3 ID_19         1       2       2       1       1       2       2       2
##  4 ID_25         1       1       2       1       1       1       1       2
##  5 ID_31         1       2       1       2       1       2       2       2
##  6 ID_36         1       2       2       1       2       2       2       1
##  7 ID_41         1       2       2       2       2       2       2       2
##  8 ID_68         1       1       2       2       2       2       2       1
##  9 ID_81         1       2       2       1       1       2       2       2
## 10 ID_84         1       2       2       2       1       2       2       1
## # â€¦ with 890 more rows, and 29 more variables: snp_5.2 <dbl>, snp_6.1 <dbl>,
## #   snp_6.2 <dbl>, snp_7.1 <dbl>, snp_7.2 <dbl>, snp_9.1 <dbl>, snp_9.2 <dbl>,
## #   snp_10.1 <dbl>, snp_10.2 <dbl>, snp_11.1 <dbl>, snp_11.2 <dbl>,
## #   snp_13.1 <dbl>, snp_13.2 <dbl>, snp_14.1 <dbl>, snp_14.2 <dbl>,
## #   snp_15.1 <dbl>, snp_15.2 <dbl>, snp_16.1 <dbl>, snp_16.2 <dbl>,
## #   snp_17.1 <dbl>, snp_17.2 <dbl>, snp_18.1 <dbl>, snp_18.2 <dbl>,
## #   snp_19.1 <dbl>, snp_19.2 <dbl>, snp_20.1 <dbl>, snp_20.2 <dbl>,
## #   snp_22.1 <dbl>, snp_22.2 <dbl>
…
## See spec(...) for full column specifications.

data_b_intro_R.dat contains data on SNP24. Combine the previous dataset and this new SNP (bind_cols combines columnwise).

snp24 <- read_table2("data_b_intro_R.dat")

## Parsed with column specification:
## cols(
##   snp_24.1 = col_double(),
##   snp_24.2 = col_double()
## )

snp24

## # A tibble: 900 x 2
##    snp_24.1 snp_24.2
##       <dbl>    <dbl>
##  1        2        2
##  2        2        2
##  3        2        2
##  4        2        2
##  5        2        2
##  6        2        2
##  7        2        2
##  8        2        2
##  9        2        2
## 10        1        2
## # â€¦ with 890 more rows

obj <- obj %>%
  bind_cols(snp24)
obj

## # A tibble: 900 x 50
##    ID    cc.status snp_1.1 snp_1.2 snp_2.1 snp_2.2 snp_3.1 snp_3.2 snp_4.1
##    <chr>     <dbl>   <dbl>   <dbl>   <dbl>   <dbl>   <dbl>   <dbl>   <dbl>
##  1 ID_3          1       2       2       1       2       2       2      NA
##  2 ID_8          1       2       2       1       2       2       1      NA
##  3 ID_19         1       2       2       1       1       2       2       2
##  4 ID_25         1       1       2       1       1       1       1       2
##  5 ID_31         1       2       1       2       1       2       2      NA
##  6 ID_36         1       2       2       1       2       2       2       1
##  7 ID_41         1       2       2       2       2       2       2       1
##  8 ID_68         1       1       2       2       2       2       2       2
##  9 ID_81         1       2       2       1       1       2       2      NA
## 10 ID_84         1       2       2       2       1       2       2      NA
## # â€¦ with 890 more rows, and 41 more variables: snp_4.2 <dbl>, snp_5.1 <dbl>,
## #   snp_5.2 <dbl>, snp_6.1 <dbl>, snp_6.2 <dbl>, snp_7.1 <dbl>, snp_7.2 <dbl>,
## #   snp_8.1 <dbl>, snp_8.2 <dbl>, snp_9.1 <dbl>, snp_9.2 <dbl>, snp_10.1 <dbl>,
## #   snp_10.2 <dbl>, snp_11.1 <dbl>, snp_11.2 <dbl>, snp_12.1 <dbl>,
## #   snp_12.2 <dbl>, snp_13.1 <dbl>, snp_13.2 <dbl>, snp_14.1 <dbl>,
## #   snp_14.2 <dbl>, snp_15.1 <dbl>, snp_15.2 <dbl>, snp_16.1 <dbl>,
## #   snp_16.2 <dbl>, snp_17.1 <dbl>, snp_17.2 <dbl>, snp_18.1 <dbl>,
## #   snp_18.2 <dbl>, snp_19.1 <dbl>, snp_19.2 <dbl>, snp_20.1 <dbl>,
## #   snp_20.2 <dbl>, snp_21.1 <dbl>, snp_21.2 <dbl>, snp_22.1 <dbl>,
…
The files data.ped and data.map contain information about the genotype and phenotype, and about the SNPs, respectively, for a dataset with families (mother, father and a child), where the child had an oral cleft.

Show the first 10 lines of data.map

read_table2("data.map", col_names = FALSE)

## Parsed with column specification:
## cols(
##   X1 = col_double(),
##   X2 = col_character(),
##   X3 = col_double()
## )

## # A tibble: 429 x 3
##       X1 X2       X3
##    <dbl> <chr> <dbl>
##  1     1 rs1       0
##  2     1 rs3       0
##  3     1 rs5       0
##  4     1 rs6       0
##  5     1 rs7       0
##  6     1 rs8       0
##  7     1 rs9       0
##  8     1 rs10      0
##  9     1 rs11      0
## 10     1 rs12      0
## # â€¦ with 419 more rows
…
